<?xml version="1.0" encoding="UTF-8" standalone="no"?>
<svg
   xmlns:dc="http://purl.org/dc/elements/1.1/"
   xmlns:cc="http://creativecommons.org/ns#"
   xmlns:rdf="http://www.w3.org/1999/02/22-rdf-syntax-ns#"
   xmlns:svg="http://www.w3.org/2000/svg"
   xmlns="http://www.w3.org/2000/svg"
   xmlns:sodipodi="http://sodipodi.sourceforge.net/DTD/sodipodi-0.dtd"
   xmlns:inkscape="http://www.inkscape.org/namespaces/inkscape"
   version="1.1"
   id="Capa_1"
   x="0px"
   y="0px"
   viewBox="0 0 512 512"
   style="enable-background:new 0 0 512 512;"
   xml:space="preserve"
   width="512px"
   height="512px"
   inkscape:version="0.91 r"
   sodipodi:docname="double-right-arrows-angles.svg"><metadata
     id="metadata6134"><rdf:RDF><cc:Work
         rdf:about=""><dc:format>image/svg+xml</dc:format><dc:type
           rdf:resource="http://purl.org/dc/dcmitype/StillImage" /><dc:title></dc:title></cc:Work></rdf:RDF></metadata><defs
     id="defs6132" /><sodipodi:namedview
     pagecolor="#ffffff"
     bordercolor="#666666"
     borderopacity="1"
     objecttolerance="10"
     gridtolerance="10"
     guidetolerance="10"
     inkscape:pageopacity="0"
     inkscape:pageshadow="2"
     inkscape:window-width="2560"
     inkscape:window-height="1388"
     id="namedview6130"
     showgrid="false"
     inkscape:zoom="1.1787109"
     inkscape:cx="256"
     inkscape:cy="256"
     inkscape:window-x="1920"
     inkscape:window-y="0"
     inkscape:window-maximized="1"
     inkscape:current-layer="Capa_1" /><g
     id="g6144"
     transform="matrix(-1,0,0,-1,362.68491,512.84999)"><g
       transform="translate(-72.96106,0)"
       id="g6122"><g
         id="g6124"><g
           id="g6126"><path
             style="fill:#aa0000"
             inkscape:connector-curvature="0"
             id="path6128"
             data-old_color="#aa0000"
             class="active-path"
             data-original="#000000"
             d="M 401.742,493.334 133.412,256 401.721,18.667 c 4.416,-3.904 4.843,-10.645 0.917,-15.061 -3.925,-4.437 -10.667,-4.821 -15.061,-0.917 L 110.244,248.022 c -2.261,2.005 -3.584,4.928 -3.584,7.979 0,3.051 1.323,5.973 3.605,8 l 277.333,245.333 c 2.027,1.771 4.544,2.667 7.061,2.667 2.944,0 5.888,-1.216 8,-3.605 3.905,-4.417 3.499,-11.137 -0.917,-15.062 z" /></g></g></g><g
       id="g6136"
       transform="translate(-208.70257,0.84838442)"><g
         id="g6138"><g
           id="g6140"><path
             d="M 401.742,493.334 133.412,256 401.721,18.667 c 4.416,-3.904 4.843,-10.645 0.917,-15.061 -3.925,-4.437 -10.667,-4.821 -15.061,-0.917 L 110.244,248.022 c -2.261,2.005 -3.584,4.928 -3.584,7.979 0,3.051 1.323,5.973 3.605,8 l 277.333,245.333 c 2.027,1.771 4.544,2.667 7.061,2.667 2.944,0 5.888,-1.216 8,-3.605 3.905,-4.417 3.499,-11.137 -0.917,-15.062 z"
             data-original="#000000"
             class="active-path"
             data-old_color="#aa0000"
             id="path6142"
             inkscape:connector-curvature="0"
             style="fill:#aa0000" /></g></g></g></g></svg>