<?xml version="1.0" encoding="UTF-8" standalone="no"?>
<svg
   xmlns:dc="http://purl.org/dc/elements/1.1/"
   xmlns:cc="http://creativecommons.org/ns#"
   xmlns:rdf="http://www.w3.org/1999/02/22-rdf-syntax-ns#"
   xmlns:svg="http://www.w3.org/2000/svg"
   xmlns="http://www.w3.org/2000/svg"
   xmlns:sodipodi="http://sodipodi.sourceforge.net/DTD/sodipodi-0.dtd"
   xmlns:inkscape="http://www.inkscape.org/namespaces/inkscape"
   version="1.1"
   id="Capa_1"
   x="0px"
   y="0px"
   viewBox="0 0 512 512"
   style="enable-background:new 0 0 512 512;"
   xml:space="preserve"
   width="512px"
   height="512px"
   class=""
   inkscape:version="0.91 r"
   sodipodi:docname="roomchart.svg"><metadata
     id="metadata15094"><rdf:RDF><cc:Work
         rdf:about=""><dc:format>image/svg+xml</dc:format><dc:type
           rdf:resource="http://purl.org/dc/dcmitype/StillImage" /><dc:title></dc:title></cc:Work></rdf:RDF></metadata><defs
     id="defs15092" /><sodipodi:namedview
     pagecolor="#ffffff"
     bordercolor="#666666"
     borderopacity="1"
     objecttolerance="10"
     gridtolerance="10"
     guidetolerance="10"
     inkscape:pageopacity="0"
     inkscape:pageshadow="2"
     inkscape:window-width="2560"
     inkscape:window-height="1388"
     id="namedview15090"
     showgrid="false"
     inkscape:zoom="2.3574219"
     inkscape:cx="256"
     inkscape:cy="256"
     inkscape:window-x="1920"
     inkscape:window-y="0"
     inkscape:window-maximized="1"
     inkscape:current-layer="Capa_1" /><g
     id="g15078"><g
       id="g15080"><g
         id="g15082"><g
           id="g15084"><path
             d="M477.867,51.2h-59.733V34.133C418.133,15.313,402.825,0,384,0c-18.825,0-34.133,15.313-34.133,34.133V51.2H162.133     V34.133C162.133,15.313,146.825,0,128,0S93.867,15.313,93.867,34.133V51.2H34.133c-14.117,0-25.6,11.483-25.6,25.6v409.6     c0,14.117,11.483,25.6,25.6,25.6h443.733c14.117,0,25.6-11.483,25.6-25.6V76.8C503.467,62.683,491.983,51.2,477.867,51.2z      M366.933,34.133c0-9.413,7.658-17.067,17.067-17.067s17.067,7.654,17.067,17.067v51.2c0,9.413-7.658,17.067-17.067,17.067     s-17.067-7.654-17.067-17.067V34.133z M110.933,34.133c0-9.413,7.658-17.067,17.067-17.067s17.067,7.654,17.067,17.067v51.2     c0,9.413-7.658,17.067-17.067,17.067s-17.067-7.654-17.067-17.067V34.133z M170.667,494.933H34.133     c-4.708,0-8.533-3.829-8.533-8.533v-85.333h145.067V494.933z M170.667,384H25.6V281.6h145.067V384z M170.667,264.533H25.6     v-93.867h145.067V264.533z M324.267,494.933H187.733v-93.867h136.533V494.933z M324.267,384H187.733V281.6h136.533V384z      M324.267,264.533H187.733v-93.867h136.533V264.533z M486.4,486.4c0,4.704-3.825,8.533-8.533,8.533H341.333v-93.867H486.4V486.4z      M486.4,384H341.333V281.6H486.4V384z M486.4,264.533H341.333v-93.867H486.4V264.533z M486.4,153.6H25.6V76.8     c0-4.704,3.825-8.533,8.533-8.533h59.733v17.067c0,18.821,15.308,34.133,34.133,34.133s34.133-15.313,34.133-34.133V68.267     h187.733v17.067c0,18.821,15.308,34.133,34.133,34.133c18.825,0,34.133-15.313,34.133-34.133V68.267h59.733     c4.708,0,8.533,3.829,8.533,8.533V153.6z"
             data-original="#000000"
             class="active-path"
             data-old_color="#aa0000"
             fill="#aa0000"
             id="path15086" /><path
             d="M395.033,372.967c1.667,1.667,3.85,2.5,6.033,2.5c2.183,0,4.367-0.833,6.033-2.5l68.267-68.267     c3.333-3.333,3.333-8.733,0-12.067c-3.333-3.333-8.733-3.333-12.067,0l-62.233,62.233l-28.1-28.1     c-3.333-3.333-8.733-3.333-12.067,0c-3.333,3.333-3.333,8.733,0,12.067L395.033,372.967z"
             data-original="#000000"
             class="active-path"
             data-old_color="#aa0000"
             fill="#aa0000"
             id="path15088" /></g></g></g></g></svg>